[2024-06-21T13:07:10.115+0000][2648][info][gc,init] CardTable entry size: 512
[2024-06-21T13:07:10.115+0000][2648][info][gc     ] Using G1
[2024-06-21T13:07:10.369+0000][2648][info][gc,init] Version: 22.0.1+8-16 (release)
[2024-06-21T13:07:10.369+0000][2648][info][gc,init] CPUs: 16 total, 16 available
[2024-06-21T13:07:10.369+0000][2648][info][gc,init] Memory: 16108M
[2024-06-21T13:07:10.369+0000][2648][info][gc,init] Large Page Support: Disabled
[2024-06-21T13:07:10.369+0000][2648][info][gc,init] NUMA Support: Disabled
[2024-06-21T13:07:10.369+0000][2648][info][gc,init] Compressed Oops: Enabled (Zero based)
[2024-06-21T13:07:10.369+0000][2648][info][gc,init] Heap Region Size: 4M
[2024-06-21T13:07:10.369+0000][2648][info][gc,init] Heap Min Capacity: 8056M
[2024-06-21T13:07:10.374+0000][2648][info][gc,init] Heap Initial Capacity: 8056M
[2024-06-21T13:07:10.374+0000][2648][info][gc,init] Heap Max Capacity: 8056M
[2024-06-21T13:07:10.374+0000][2648][info][gc,init] Pre-touch: Disabled
[2024-06-21T13:07:10.374+0000][2648][info][gc,init] Parallel Workers: 13
[2024-06-21T13:07:10.374+0000][2648][info][gc,init] Concurrent Workers: 3
[2024-06-21T13:07:10.374+0000][2648][info][gc,init] Concurrent Refinement Workers: 13
[2024-06-21T13:07:10.374+0000][2648][info][gc,init] Periodic GC: Disabled
[2024-06-21T13:07:10.383+0000][2648][info][gc,metaspace] CDS archive(s) mapped at: [0x0000023953000000-0x0000023953c50000-0x0000023953c50000), size 12910592, SharedBaseAddress: 0x0000023953000000, ArchiveRelocationMode: 1.
[2024-06-21T13:07:10.383+0000][2648][info][gc,metaspace] Compressed class space mapped at: 0x0000023954000000-0x0000023994000000, reserved size: 1073741824
[2024-06-21T13:07:10.383+0000][2648][info][gc,metaspace] Narrow klass base: 0x0000023953000000, Narrow klass shift: 0, Narrow klass range: 0x41000000
[2024-06-21T13:07:10.431+0000][2648][info][gc,heap,exit] Heap
[2024-06-21T13:07:10.431+0000][2648][info][gc,heap,exit]  garbage-first heap   total reserved 8249344K, committed 8249344K, used 12288K [0x0000000608800000, 0x0000000800000000)
[2024-06-21T13:07:10.431+0000][2648][info][gc,heap,exit]   region size 4096K, 3 young (12288K), 0 survivors (0K)
[2024-06-21T13:07:10.431+0000][2648][info][gc,heap,exit]  Metaspace       used 228K, committed 448K, reserved 1114112K
[2024-06-21T13:07:10.431+0000][2648][info][gc,heap,exit]   class space    used 7K, committed 128K, reserved 1048576K
